<svg version="1.2" baseProfile="tiny-ps" xmlns="http://www.w3.org/2000/svg" viewBox="0 0 467 524" width="467" height="524">
	<title>PRINT</title>
	<style>
		tspan { white-space:pre }
		.shp0 { opacity: 0.102;mix-blend-mode: multiply;fill: #5c0709 } 
	</style>
	<g id="PRINT">
		<g id="&lt;Group&gt;">
			<g id="&lt;Group&gt;">
				<path id="&lt;Compound Path&gt;" fill-rule="evenodd" class="shp0" d="M459.96 392.72L343.41 393.72L350.3 464.11L350.29 464.12L292.77 422.95L233.64 523.38L174.5 422.95L116.99 464.12L116.98 464.11L123.87 393.71L7.32 392.72L64.73 291.28L0.32 262.06L0.32 262.05L64.74 232.82L7.32 131.39L123.87 130.39L116.98 60L116.99 59.99L174.51 101.16L233.64 0.73L292.78 101.16L350.29 59.99L350.3 60L343.41 130.4L459.96 131.39L402.55 232.83L466.96 262.05L466.96 262.06L402.54 291.29L459.96 392.72ZM336.34 202.76L372.68 219.26L408.07 161.35L340.22 163.04L336.34 202.76ZM274.14 156.23L278.32 184.69L304.98 174.85L309.08 131.39L274.14 156.23ZM300.21 223.62L275.1 221.12L256.97 248.58L289.83 246.63L300.21 223.62ZM289.82 277.49L256.97 275.53L275.09 303L300.21 300.49L289.82 277.49ZM201.18 120.24L233.64 143.46L266.1 120.24L233.64 60.64L201.18 120.24ZM248.38 205.68L233.64 185.19L218.92 205.68L233.64 235.11L248.38 205.68ZM233.64 289L218.9 318.43L233.64 338.92L248.36 318.43L233.64 289ZM210.31 248.58L192.19 221.11L167.07 223.62L177.46 246.62L210.31 248.58ZM177.45 277.48L167.07 300.49L192.18 302.99L210.31 275.53L177.45 277.48ZM94.6 219.26L130.94 202.76L127.06 163.04L59.21 161.35L94.6 219.26ZM130.94 321.35L94.6 304.85L59.21 362.76L127.06 361.07L130.94 321.35ZM144.3 262.05L122.45 243.87L82.77 262.06L121.74 279.89L144.3 262.05ZM158.2 131.39L162.24 174.07L188.98 184.68L193.79 156.67L158.2 131.39ZM193.14 367.88L188.96 339.42L162.3 349.26L158.2 392.72L193.14 367.88ZM266.1 403.87L233.64 380.65L201.18 403.87L233.64 463.47L266.1 403.87ZM309.08 392.72L305.04 350.04L278.3 339.43L273.49 367.44L309.08 392.72ZM322.98 262.06L344.83 280.24L384.51 262.05L345.54 244.22L322.98 262.06ZM408.07 362.76L372.68 304.85L336.34 321.35L340.22 361.07L408.07 362.76Z" />
			</g>
		</g>
	</g>
</svg>